^C:\USERS\ANSH.ARORA\DOCUMENTS\VISUAL STUDIO 2013\PROJECTS\DYNAMIC_LINKING\DEBUG\DLL_FILE.LIB|C:\USERS\ANSH.ARORA\DOCUMENTS\VISUAL STUDIO 2013\PROJECTS\DYNAMIC_LINKING\SUM_APP\DEBUG\STDAFX.OBJ|C:\USERS\ANSH.ARORA\DOCUMENTS\VISUAL STUDIO 2013\PROJECTS\DYNAMIC_LINKING\SUM_APP\DEBUG\SUM_APP.OBJ
C:\PROGRAM FILES (X86)\WINDOWS KITS\8.1\LIB\WINV6.3\UM\X86\KERNEL32.LIB
C:\PROGRAM FILES (X86)\WINDOWS KITS\8.1\LIB\WINV6.3\UM\X86\USER32.LIB
C:\PROGRAM FILES (X86)\WINDOWS KITS\8.1\LIB\WINV6.3\UM\X86\GDI32.LIB
C:\PROGRAM FILES (X86)\WINDOWS KITS\8.1\LIB\WINV6.3\UM\X86\WINSPOOL.LIB
C:\PROGRAM FILES (X86)\WINDOWS KITS\8.1\LIB\WINV6.3\UM\X86\COMDLG32.LIB
C:\PROGRAM FILES (X86)\WINDOWS KITS\8.1\LIB\WINV6.3\UM\X86\ADVAPI32.LIB
C:\PROGRAM FILES (X86)\WINDOWS KITS\8.1\LIB\WINV6.3\UM\X86\SHELL32.LIB
C:\PROGRAM FILES (X86)\WINDOWS KITS\8.1\LIB\WINV6.3\UM\X86\OLE32.LIB
C:\PROGRAM FILES (X86)\WINDOWS KITS\8.1\LIB\WINV6.3\UM\X86\OLEAUT32.LIB
C:\PROGRAM FILES (X86)\WINDOWS KITS\8.1\LIB\WINV6.3\UM\X86\UUID.LIB
C:\PROGRAM FILES (X86)\WINDOWS KITS\8.1\LIB\WINV6.3\UM\X86\ODBC32.LIB
C:\PROGRAM FILES (X86)\WINDOWS KITS\8.1\LIB\WINV6.3\UM\X86\ODBCCP32.LIB
C:\USERS\ANSH.ARORA\DOCUMENTS\VISUAL STUDIO 2013\PROJECTS\DYNAMIC_LINKING\SUM_APP\DEBUG\STDAFX.OBJ
C:\USERS\ANSH.ARORA\DOCUMENTS\VISUAL STUDIO 2013\PROJECTS\DYNAMIC_LINKING\SUM_APP\DEBUG\SUM_APP.OBJ
C:\USERS\ANSH.ARORA\DOCUMENTS\VISUAL STUDIO 2013\PROJECTS\DYNAMIC_LINKING\DEBUG\DLL_FILE.LIB
C:\WINDOWS\GLOBALIZATION\SORTING\SORTDEFAULT.NLS
C:\PROGRAM FILES (X86)\MICROSOFT VISUAL STUDIO 12.0\VC\LIB\MSVCRTD.LIB
C:\PROGRAM FILES (X86)\MICROSOFT VISUAL STUDIO 12.0\VC\LIB\OLDNAMES.LIB
C:\PROGRAM FILES (X86)\MICROSOFT VISUAL STUDIO 12.0\VC\LIB\MSVCPRTD.LIB
C:\PROGRAM FILES (X86)\WINDOWS KITS\8.1\BIN\X86\RC.EXE
C:\PROGRAM FILES (X86)\MICROSOFT VISUAL STUDIO 12.0\VC\BIN\CVTRES.EXE
