^C:\USERS\ANSH.ARORA\DOCUMENTS\VISUAL STUDIO 2013\PROJECTS\STATIC_LINKING\SUM_APP\STDAFX.CPP
C:\USERS\ANSH.ARORA\DOCUMENTS\VISUAL STUDIO 2013\PROJECTS\STATIC_LINKING\SUM_APP\DEBUG\SUM_APP.PCH
C:\USERS\ANSH.ARORA\DOCUMENTS\VISUAL STUDIO 2013\PROJECTS\STATIC_LINKING\SUM_APP\DEBUG\VC120.PDB
C:\USERS\ANSH.ARORA\DOCUMENTS\VISUAL STUDIO 2013\PROJECTS\STATIC_LINKING\SUM_APP\DEBUG\VC120.IDB
C:\USERS\ANSH.ARORA\DOCUMENTS\VISUAL STUDIO 2013\PROJECTS\STATIC_LINKING\SUM_APP\DEBUG\STDAFX.OBJ
^C:\USERS\ANSH.ARORA\DOCUMENTS\VISUAL STUDIO 2013\PROJECTS\STATIC_LINKING\SUM_APP\SUM_APP.CPP
C:\USERS\ANSH.ARORA\DOCUMENTS\VISUAL STUDIO 2013\PROJECTS\STATIC_LINKING\SUM_APP\DEBUG\VC120.PDB
C:\USERS\ANSH.ARORA\DOCUMENTS\VISUAL STUDIO 2013\PROJECTS\STATIC_LINKING\SUM_APP\DEBUG\VC120.IDB
C:\USERS\ANSH.ARORA\DOCUMENTS\VISUAL STUDIO 2013\PROJECTS\STATIC_LINKING\SUM_APP\DEBUG\SUM_APP.OBJ
