^C:\USERS\ANSH.ARORA\DOCUMENTS\VISUAL STUDIO 2013\PROJECTS\STATIC_LINKING\DEBUG\LIB_FILE.LIB|C:\USERS\ANSH.ARORA\DOCUMENTS\VISUAL STUDIO 2013\PROJECTS\STATIC_LINKING\SUM_APP\DEBUG\STDAFX.OBJ|C:\USERS\ANSH.ARORA\DOCUMENTS\VISUAL STUDIO 2013\PROJECTS\STATIC_LINKING\SUM_APP\DEBUG\SUM_APP.OBJ
C:\USERS\ANSH.ARORA\DOCUMENTS\VISUAL STUDIO 2013\PROJECTS\STATIC_LINKING\DEBUG\SUM_APP.ILK
C:\USERS\ANSH.ARORA\DOCUMENTS\VISUAL STUDIO 2013\PROJECTS\STATIC_LINKING\DEBUG\SUM_APP.EXE
C:\USERS\ANSH.ARORA\DOCUMENTS\VISUAL STUDIO 2013\PROJECTS\STATIC_LINKING\DEBUG\SUM_APP.PDB
