^C:\USERS\ANSH.ARORA\DOCUMENTS\VISUAL STUDIO 2013\PROJECTS\EXPLICIT_DYNAMIC_LINKING\DLL_FILE\DEBUG\SUM_HEADER.OBJ
C:\USERS\ANSH.ARORA\DOCUMENTS\VISUAL STUDIO 2013\PROJECTS\EXPLICIT_DYNAMIC_LINKING\DEBUG\DLL_FILE.ILK
C:\USERS\ANSH.ARORA\DOCUMENTS\VISUAL STUDIO 2013\PROJECTS\EXPLICIT_DYNAMIC_LINKING\DEBUG\DLL_FILE.DLL
C:\USERS\ANSH.ARORA\DOCUMENTS\VISUAL STUDIO 2013\PROJECTS\EXPLICIT_DYNAMIC_LINKING\DEBUG\DLL_FILE.PDB
